{
    "relationships": [
        {
            "relationshipName": "article",
            "otherEntityName": "article",
            "relationshipType": "many-to-many",
            "ownerSide": false,
            "otherEntityRelationshipName": "tags"
        }
    ],
    "fields": [
        {
            "fieldName": "name",
            "fieldType": "String",
            "fieldValidateRules": [
                "required",
                "minlength",
                "maxlength"
            ],
            "fieldValidateRulesMinlength": "2",
            "fieldValidateRulesMaxlength": "20"
        }
    ],
    "changelogDate": "20160429144414",
    "dto": "no",
    "service": "no",
    "entityTableName": "tag",
    "pagination": "no"
}
